---------------------------------------------
1 ROUGE-1 Average_R: 0.18317 (95%-conf.int. 0.16529 - 0.20039)
1 ROUGE-1 Average_P: 0.13827 (95%-conf.int. 0.12821 - 0.14814)
1 ROUGE-1 Average_F: 0.14528 (95%-conf.int. 0.13496 - 0.15590)
---------------------------------------------
1 ROUGE-2 Average_R: 0.05154 (95%-conf.int. 0.03870 - 0.06537)
1 ROUGE-2 Average_P: 0.03093 (95%-conf.int. 0.02465 - 0.03750)
1 ROUGE-2 Average_F: 0.03493 (95%-conf.int. 0.02776 - 0.04240)
---------------------------------------------
1 ROUGE-3 Average_R: 0.03101 (95%-conf.int. 0.02010 - 0.04322)
1 ROUGE-3 Average_P: 0.01698 (95%-conf.int. 0.01188 - 0.02234)
1 ROUGE-3 Average_F: 0.01921 (95%-conf.int. 0.01337 - 0.02566)
---------------------------------------------
1 ROUGE-4 Average_R: 0.02390 (95%-conf.int. 0.01418 - 0.03556)
1 ROUGE-4 Average_P: 0.01156 (95%-conf.int. 0.00743 - 0.01609)
1 ROUGE-4 Average_F: 0.01355 (95%-conf.int. 0.00880 - 0.01901)
---------------------------------------------
1 ROUGE-L Average_R: 0.15804 (95%-conf.int. 0.14212 - 0.17414)
1 ROUGE-L Average_P: 0.11975 (95%-conf.int. 0.11059 - 0.12898)
1 ROUGE-L Average_F: 0.12529 (95%-conf.int. 0.11611 - 0.13495)
---------------------------------------------
1 ROUGE-W-1.2 Average_R: 0.07235 (95%-conf.int. 0.06447 - 0.08019)
1 ROUGE-W-1.2 Average_P: 0.10296 (95%-conf.int. 0.09512 - 0.11109)
1 ROUGE-W-1.2 Average_F: 0.07768 (95%-conf.int. 0.07160 - 0.08412)
---------------------------------------------
1 ROUGE-S* Average_R: 0.05276 (95%-conf.int. 0.03950 - 0.06623)
1 ROUGE-S* Average_P: 0.02118 (95%-conf.int. 0.01703 - 0.02583)
1 ROUGE-S* Average_F: 0.02251 (95%-conf.int. 0.01867 - 0.02665)
---------------------------------------------
1 ROUGE-SU* Average_R: 0.06285 (95%-conf.int. 0.04957 - 0.07649)
1 ROUGE-SU* Average_P: 0.02999 (95%-conf.int. 0.02560 - 0.03517)
1 ROUGE-SU* Average_F: 0.03018 (95%-conf.int. 0.02608 - 0.03468)
